PS270 Final Project
…
Results

First, we want to filter the data to only focus on ceasefires that were called for humanitarian purposes.

humanitarian_purpose <- ceasefire |> 
  filter (p_humanitarian == 1)

humanitarian_purpose

# A tibble: 847 × 87
      cc cf_id uniq_id location  region  link ucdp_actor_id actor_name
   <dbl> <dbl>   <dbl> <chr>      <dbl> <dbl>         <dbl> <chr>     
 1    70     1   70001 Mexico         5     0            10 Governmen…
 2    92     4   92004 El Salva…      5     0           755 FMLN      
 3    92     7   92007 El Salva…      5     0           755 FMLN      
 4    92    16   92016 El Salva…      5     0           755 FMLN      
 5    93    16   93016 Nicaragua      5     0          5803 Recontra  
 6   100     9  100009 Colombia       5     0           744 ELN       
 7   100     9  100009 Colombia       5     0            17 Governmen…
 8   100    33  100033 Colombia       5     0           744 ELN       
 9   343     3  343003 Macedonia      1     0            47 Governmen…
10   343     4  343004 Macedonia      1     0            47 Governmen…
# ℹ 837 more rows
# ℹ 79 more variables: ucdp_acd_id <dbl>, ucdp_dyad <dbl>,
#   pax_id <dbl>, cf_dec_yr <dbl>, cf_dec_month <dbl>,
#   cf_dec_day <dbl>, cf_effect_yr <dbl>, cf_effect_month <dbl>,
#   cf_effect_day <dbl>, evidence_onset <lgl>, side <dbl>,
#   partial <dbl>, written <dbl>, fixed <dbl>, fixed_time <chr>,
#   nsa_frac <dbl>, p_humanitarian <dbl>, p_peaceprocess <dbl>, …
…
I am going to do the same thing, but this time with another variable in the dataset: p_peaceprocess.

peace_process <- ceasefire |> 
  filter (p_peaceprocess == 1) 

peace_process

# A tibble: 2,970 × 87
      cc cf_id uniq_id location  region  link ucdp_actor_id actor_name
   <dbl> <dbl>   <dbl> <chr>      <dbl> <dbl>         <dbl> <chr>     
 1    70     1   70001 Mexico         5     0            10 Governmen…
 2    70     2   70002 Mexico         5     0           767 EZLN      
 3    70     3   70003 Mexico         5     0           767 EZLN      
 4    70     4   70004 Mexico         5     1           767 EZLN      
 5    70     5   70005 Mexico         5     1           767 EZLN      
 6    70     6   70006 Mexico         5     1           767 EZLN      
 7    70     7   70007 Mexico         5     0            10 Governmen…
 8    90     1   90001 Guatemala      5     0           732 URNG      
 9    90     3   90003 Guatemala      5     0           732 URNG      
10    90     4   90004 Guatemala      5     0           732 URNG      
# ℹ 2,960 more rows
# ℹ 79 more variables: ucdp_acd_id <dbl>, ucdp_dyad <dbl>,
#   pax_id <dbl>, cf_dec_yr <dbl>, cf_dec_month <dbl>,
#   cf_dec_day <dbl>, cf_effect_yr <dbl>, cf_effect_month <dbl>,
#   cf_effect_day <dbl>, evidence_onset <lgl>, side <dbl>,
#   partial <dbl>, written <dbl>, fixed <dbl>, fixed_time <chr>,
#   nsa_frac <dbl>, p_humanitarian <dbl>, p_peaceprocess <dbl>, …
…
